%YAML 1.1
%TAG !u! tag:unity3d.com,2011:
--- !u!29 &1
OcclusionCullingSettings:
  m_ObjectHideFlags: 0
  serializedVersion: 2
  m_OcclusionBakeSettings:
    smallestOccluder: 5
    smallestHole: 0.25
    backfaceThreshold: 100
  m_SceneGUID: 00000000000000000000000000000000
  m_OcclusionCullingData: {fileID: 0}
--- !u!104 &2
RenderSettings:
  m_ObjectHideFlags: 0
  serializedVersion: 9
  m_Fog: 0
  m_FogColor: {r: 0.5, g: 0.5, b: 0.5, a: 1}
  m_FogMode: 3
  m_FogDensity: 0.01
  m_LinearFogStart: 0
  m_LinearFogEnd: 300
  m_AmbientSkyColor: {r: 0.212, g: 0.227, b: 0.259, a: 1}
  m_AmbientEquatorColor: {r: 0.114, g: 0.125, b: 0.133, a: 1}
  m_AmbientGroundColor: {r: 0.047, g: 0.043, b: 0.035, a: 1}
  m_AmbientIntensity: 1
  m_AmbientMode: 3
  m_SubtractiveShadowColor: {r: 0.42, g: 0.478, b: 0.627, a: 1}
  m_SkyboxMaterial: {fileID: 0}
  m_HaloStrength: 0.5
  m_FlareStrength: 1
  m_FlareFadeSpeed: 3
  m_HaloTexture: {fileID: 0}
  m_SpotCookie: {fileID: 10001, guid: 0000000000000000e000000000000000, type: 0}
  m_DefaultReflectionMode: 0
  m_DefaultReflectionResolution: 128
  m_ReflectionBounces: 1
  m_ReflectionIntensity: 1
  m_CustomReflection: {fileID: 0}
  m_Sun: {fileID: 0}
  m_IndirectSpecularColor: {r: 0, g: 0, b: 0, a: 1}
  m_UseRadianceAmbientProbe: 0
--- !u!157 &3
LightmapSettings:
  m_ObjectHideFlags: 0
  serializedVersion: 11
  m_GIWorkflowMode: 1
  m_GISettings:
    serializedVersion: 2
    m_BounceScale: 1
    m_IndirectOutputScale: 1
    m_AlbedoBoost: 1
    m_TemporalCoherenceThreshold: 1
    m_EnvironmentLightingMode: 0
    m_EnableBakedLightmaps: 0
    m_EnableRealtimeLightmaps: 0
  m_LightmapEditorSettings:
    serializedVersion: 10
    m_Resolution: 2
    m_BakeResolution: 40
    m_AtlasSize: 1024
    m_AO: 0
    m_AOMaxDistance: 1
    m_CompAOExponent: 1
    m_CompAOExponentDirect: 0
    m_Padding: 2
    m_LightmapParameters: {fileID: 0}
    m_LightmapsBakeMode: 1
    m_TextureCompression: 1
    m_FinalGather: 0
    m_FinalGatherFiltering: 1
    m_FinalGatherRayCount: 256
    m_ReflectionCompression: 2
    m_MixedBakeMode: 2
    m_BakeBackend: 1
    m_PVRSampling: 1
    m_PVRDirectSampleCount: 32
    m_PVRSampleCount: 500
    m_PVRBounces: 2
    m_PVRFilterTypeDirect: 0
    m_PVRFilterTypeIndirect: 0
    m_PVRFilterTypeAO: 0
    m_PVRFilteringMode: 1
    m_PVRCulling: 1
    m_PVRFilteringGaussRadiusDirect: 1
    m_PVRFilteringGaussRadiusIndirect: 5
    m_PVRFilteringGaussRadiusAO: 2
    m_PVRFilteringAtrousPositionSigmaDirect: 0.5
    m_PVRFilteringAtrousPositionSigmaIndirect: 2
    m_PVRFilteringAtrousPositionSigmaAO: 1
    m_ShowResolutionOverlay: 1
  m_LightingDataAsset: {fileID: 0}
  m_UseShadowmask: 1
--- !u!196 &4
NavMeshSettings:
  serializedVersion: 2
  m_ObjectHideFlags: 0
  m_BuildSettings:
    serializedVersion: 2
    agentTypeID: 0
    agentRadius: 0.5
    agentHeight: 2
    agentSlope: 45
    agentClimb: 0.4
    ledgeDropHeight: 0
    maxJumpAcrossDistance: 0
    minRegionArea: 2
    manualCellSize: 0
    cellSize: 0.16666667
    manualTileSize: 0
    tileSize: 256
    accuratePlacement: 0
    debug:
      m_Flags: 0
  m_NavMeshData: {fileID: 0}
--- !u!114 &263204613 stripped
MonoBehaviour:
  m_CorrespondingSourceObject: {fileID: 114215216752944502, guid: c6915a811395d6a4c952d570bee2e792,
    type: 2}
  m_PrefabInternal: {fileID: 2081687602}
  m_Script: {fileID: 11500000, guid: 1803f27eb435d1b4b8a9fb4756c6d9e3, type: 3}
--- !u!1 &287523713
GameObject:
  m_ObjectHideFlags: 0
  m_CorrespondingSourceObject: {fileID: 0}
  m_PrefabInternal: {fileID: 0}
  serializedVersion: 6
  m_Component:
  - component: {fileID: 287523716}
  - component: {fileID: 287523715}
  - component: {fileID: 287523714}
  m_Layer: 0
  m_Name: Main Camera
  m_TagString: MainCamera
  m_Icon: {fileID: 0}
  m_NavMeshLayer: 0
  m_StaticEditorFlags: 0
  m_IsActive: 1
--- !u!81 &287523714
AudioListener:
  m_ObjectHideFlags: 0
  m_CorrespondingSourceObject: {fileID: 0}
  m_PrefabInternal: {fileID: 0}
  m_GameObject: {fileID: 287523713}
  m_Enabled: 1
--- !u!20 &287523715
Camera:
  m_ObjectHideFlags: 0
  m_CorrespondingSourceObject: {fileID: 0}
  m_PrefabInternal: {fileID: 0}
  m_GameObject: {fileID: 287523713}
  m_Enabled: 1
  serializedVersion: 2
  m_ClearFlags: 1
  m_BackGroundColor: {r: 0.23584908, g: 0.23584908, b: 0.23584908, a: 0}
  m_projectionMatrixMode: 1
  m_SensorSize: {x: 36, y: 24}
  m_LensShift: {x: 0, y: 0}
  m_FocalLength: 50
  m_NormalizedViewPortRect:
    serializedVersion: 2
    x: 0
    y: 0
    width: 1
    height: 1
  near clip plane: 0.3
  far clip plane: 1000
  field of view: 60
  orthographic: 1
  orthographic size: 5
  m_Depth: -1
  m_CullingMask:
    serializedVersion: 2
    m_Bits: 4294967295
  m_RenderingPath: -1
  m_TargetTexture: {fileID: 0}
  m_TargetDisplay: 0
  m_TargetEye: 3
  m_HDR: 1
  m_AllowMSAA: 1
  m_AllowDynamicResolution: 0
  m_ForceIntoRT: 0
  m_OcclusionCulling: 1
  m_StereoConvergence: 10
  m_StereoSeparation: 0.022
--- !u!4 &287523716
Transform:
  m_ObjectHideFlags: 0
  m_CorrespondingSourceObject: {fileID: 0}
  m_PrefabInternal: {fileID: 0}
  m_GameObject: {fileID: 287523713}
  m_LocalRotation: {x: 0, y: 0, z: 0, w: 1}
  m_LocalPosition: {x: 0, y: 0, z: -10}
  m_LocalScale: {x: 1, y: 1, z: 1}
  m_Children: []
  m_Father: {fileID: 0}
  m_RootOrder: 0
  m_LocalEulerAnglesHint: {x: 0, y: 0, z: 0}
--- !u!1 &1430317685 stripped
GameObject:
  m_CorrespondingSourceObject: {fileID: 1298001621434112, guid: c6915a811395d6a4c952d570bee2e792,
    type: 2}
  m_PrefabInternal: {fileID: 2081687602}
--- !u!95 &1430317686
Animator:
  serializedVersion: 3
  m_ObjectHideFlags: 0
  m_CorrespondingSourceObject: {fileID: 0}
  m_PrefabInternal: {fileID: 0}
  m_GameObject: {fileID: 1430317685}
  m_Enabled: 1
  m_Avatar: {fileID: 0}
  m_Controller: {fileID: 9100000, guid: 10a615e95826e1c418de4452933da383, type: 2}
  m_CullingMode: 0
  m_UpdateMode: 0
  m_ApplyRootMotion: 0
  m_LinearVelocityBlending: 0
  m_WarningMessage: 
  m_HasTransformHierarchy: 1
  m_AllowConstantClipSamplingOptimization: 1
  m_KeepAnimatorControllerStateOnDisable: 0
--- !u!1 &1535143358 stripped
GameObject:
  m_CorrespondingSourceObject: {fileID: 1876362905796290, guid: c6915a811395d6a4c952d570bee2e792,
    type: 2}
  m_PrefabInternal: {fileID: 2081687602}
--- !u!95 &1535143359
Animator:
  serializedVersion: 3
  m_ObjectHideFlags: 0
  m_CorrespondingSourceObject: {fileID: 0}
  m_PrefabInternal: {fileID: 0}
  m_GameObject: {fileID: 1535143358}
  m_Enabled: 1
  m_Avatar: {fileID: 0}
  m_Controller: {fileID: 9100000, guid: a3189e271ae53e34aa44d963573b892e, type: 2}
  m_CullingMode: 0
  m_UpdateMode: 0
  m_ApplyRootMotion: 0
  m_LinearVelocityBlending: 0
  m_WarningMessage: 
  m_HasTransformHierarchy: 1
  m_AllowConstantClipSamplingOptimization: 1
  m_KeepAnimatorControllerStateOnDisable: 0
--- !u!114 &1535143361 stripped
MonoBehaviour:
  m_CorrespondingSourceObject: {fileID: 114140376942728328, guid: c6915a811395d6a4c952d570bee2e792,
    type: 2}
  m_PrefabInternal: {fileID: 2081687602}
  m_Script: {fileID: -765806418, guid: f70555f144d8491a825f0804e09c671c, type: 3}
--- !u!114 &1535143363
MonoBehaviour:
  m_ObjectHideFlags: 0
  m_CorrespondingSourceObject: {fileID: 0}
  m_PrefabInternal: {fileID: 0}
  m_GameObject: {fileID: 1535143358}
  m_Enabled: 1
  m_EditorHideFlags: 0
  m_Script: {fileID: 1392445389, guid: f70555f144d8491a825f0804e09c671c, type: 3}
  m_Name: 
  m_EditorClassIdentifier: 
  m_Navigation:
    m_Mode: 3
    m_SelectOnUp: {fileID: 0}
    m_SelectOnDown: {fileID: 0}
    m_SelectOnLeft: {fileID: 0}
    m_SelectOnRight: {fileID: 0}
  m_Transition: 1
  m_Colors:
    m_NormalColor: {r: 1, g: 1, b: 1, a: 1}
    m_HighlightedColor: {r: 0.9607843, g: 0.9607843, b: 0.9607843, a: 1}
    m_PressedColor: {r: 0.78431374, g: 0.78431374, b: 0.78431374, a: 1}
    m_DisabledColor: {r: 0.78431374, g: 0.78431374, b: 0.78431374, a: 0.5019608}
    m_ColorMultiplier: 1
    m_FadeDuration: 0.1
  m_SpriteState:
    m_HighlightedSprite: {fileID: 0}
    m_PressedSprite: {fileID: 0}
    m_DisabledSprite: {fileID: 0}
  m_AnimationTriggers:
    m_NormalTrigger: Normal
    m_HighlightedTrigger: Highlighted
    m_PressedTrigger: Pressed
    m_DisabledTrigger: Disabled
  m_Interactable: 1
  m_TargetGraphic: {fileID: 1535143361}
  m_OnClick:
    m_PersistentCalls:
      m_Calls:
      - m_Target: {fileID: 263204613}
        m_MethodName: P1ChooseCharacter
        m_Mode: 3
        m_Arguments:
          m_ObjectArgument: {fileID: 0}
          m_ObjectArgumentAssemblyTypeName: UnityEngine.Object, UnityEngine
          m_IntArgument: 0
          m_FloatArgument: 0
          m_StringArgument: 
          m_BoolArgument: 0
        m_CallState: 2
    m_TypeName: UnityEngine.UI.Button+ButtonClickedEvent, UnityEngine.UI, Version=1.0.0.0,
      Culture=neutral, PublicKeyToken=null
--- !u!1 &1879885411 stripped
GameObject:
  m_CorrespondingSourceObject: {fileID: 1942706650224160, guid: c6915a811395d6a4c952d570bee2e792,
    type: 2}
  m_PrefabInternal: {fileID: 2081687602}
--- !u!95 &1879885412
Animator:
  serializedVersion: 3
  m_ObjectHideFlags: 0
  m_CorrespondingSourceObject: {fileID: 0}
  m_PrefabInternal: {fileID: 0}
  m_GameObject: {fileID: 1879885411}
  m_Enabled: 1
  m_Avatar: {fileID: 0}
  m_Controller: {fileID: 9100000, guid: 5369ca2391dc60b4583aab77e4ff55f3, type: 2}
  m_CullingMode: 0
  m_UpdateMode: 0
  m_ApplyRootMotion: 0
  m_LinearVelocityBlending: 0
  m_WarningMessage: 
  m_HasTransformHierarchy: 1
  m_AllowConstantClipSamplingOptimization: 1
  m_KeepAnimatorControllerStateOnDisable: 0
--- !u!1 &2016433019
GameObject:
  m_ObjectHideFlags: 0
  m_CorrespondingSourceObject: {fileID: 0}
  m_PrefabInternal: {fileID: 0}
  serializedVersion: 6
  m_Component:
  - component: {fileID: 2016433022}
  - component: {fileID: 2016433021}
  - component: {fileID: 2016433020}
  m_Layer: 0
  m_Name: EventSystem
  m_TagString: Untagged
  m_Icon: {fileID: 0}
  m_NavMeshLayer: 0
  m_StaticEditorFlags: 0
  m_IsActive: 1
--- !u!114 &2016433020
MonoBehaviour:
  m_ObjectHideFlags: 0
  m_CorrespondingSourceObject: {fileID: 0}
  m_PrefabInternal: {fileID: 0}
  m_GameObject: {fileID: 2016433019}
  m_Enabled: 1
  m_EditorHideFlags: 0
  m_Script: {fileID: 1077351063, guid: f70555f144d8491a825f0804e09c671c, type: 3}
  m_Name: 
  m_EditorClassIdentifier: 
  m_HorizontalAxis: Horizontal
  m_VerticalAxis: Vertical
  m_SubmitButton: Submit
  m_CancelButton: Cancel
  m_InputActionsPerSecond: 10
  m_RepeatDelay: 0.5
  m_ForceModuleActive: 0
--- !u!114 &2016433021
MonoBehaviour:
  m_ObjectHideFlags: 0
  m_CorrespondingSourceObject: {fileID: 0}
  m_PrefabInternal: {fileID: 0}
  m_GameObject: {fileID: 2016433019}
  m_Enabled: 1
  m_EditorHideFlags: 0
  m_Script: {fileID: -619905303, guid: f70555f144d8491a825f0804e09c671c, type: 3}
  m_Name: 
  m_EditorClassIdentifier: 
  m_FirstSelected: {fileID: 0}
  m_sendNavigationEvents: 1
  m_DragThreshold: 10
--- !u!4 &2016433022
Transform:
  m_ObjectHideFlags: 0
  m_CorrespondingSourceObject: {fileID: 0}
  m_PrefabInternal: {fileID: 0}
  m_GameObject: {fileID: 2016433019}
  m_LocalRotation: {x: 0, y: 0, z: 0, w: 1}
  m_LocalPosition: {x: 0, y: 0, z: 0}
  m_LocalScale: {x: 1, y: 1, z: 1}
  m_Children: []
  m_Father: {fileID: 0}
  m_RootOrder: 2
  m_LocalEulerAnglesHint: {x: 0, y: 0, z: 0}
--- !u!1 &2024769841 stripped
GameObject:
  m_CorrespondingSourceObject: {fileID: 1650750478218582, guid: c6915a811395d6a4c952d570bee2e792,
    type: 2}
  m_PrefabInternal: {fileID: 2081687602}
--- !u!95 &2024769842
Animator:
  serializedVersion: 3
  m_ObjectHideFlags: 0
  m_CorrespondingSourceObject: {fileID: 0}
  m_PrefabInternal: {fileID: 0}
  m_GameObject: {fileID: 2024769841}
  m_Enabled: 1
  m_Avatar: {fileID: 0}
  m_Controller: {fileID: 9100000, guid: e8b32a76f39d37b48bc4b4405907255e, type: 2}
  m_CullingMode: 0
  m_UpdateMode: 0
  m_ApplyRootMotion: 0
  m_LinearVelocityBlending: 0
  m_WarningMessage: 
  m_HasTransformHierarchy: 1
  m_AllowConstantClipSamplingOptimization: 1
  m_KeepAnimatorControllerStateOnDisable: 0
--- !u!1001 &2081687602
Prefab:
  m_ObjectHideFlags: 0
  serializedVersion: 2
  m_Modification:
    m_TransformParent: {fileID: 0}
    m_Modifications:
    - target: {fileID: 114371504397151134, guid: c6915a811395d6a4c952d570bee2e792,
        type: 2}
      propertyPath: m_Delegates.Array.size
      value: 2
      objectReference: {fileID: 0}
    - target: {fileID: 114371504397151134, guid: c6915a811395d6a4c952d570bee2e792,
        type: 2}
      propertyPath: m_Delegates.Array.data[2].callback.m_PersistentCalls.m_Calls.Array.size
      value: 0
      objectReference: {fileID: 0}
    - target: {fileID: 224653966570584042, guid: c6915a811395d6a4c952d570bee2e792,
        type: 2}
      propertyPath: m_LocalPosition.x
      value: 0
      objectReference: {fileID: 0}
    - target: {fileID: 224653966570584042, guid: c6915a811395d6a4c952d570bee2e792,
        type: 2}
      propertyPath: m_LocalPosition.y
      value: 0
      objectReference: {fileID: 0}
    - target: {fileID: 224653966570584042, guid: c6915a811395d6a4c952d570bee2e792,
        type: 2}
      propertyPath: m_LocalPosition.z
      value: 0
      objectReference: {fileID: 0}
    - target: {fileID: 224653966570584042, guid: c6915a811395d6a4c952d570bee2e792,
        type: 2}
      propertyPath: m_LocalRotation.x
      value: 0
      objectReference: {fileID: 0}
    - target: {fileID: 224653966570584042, guid: c6915a811395d6a4c952d570bee2e792,
        type: 2}
      propertyPath: m_LocalRotation.y
      value: 0
      objectReference: {fileID: 0}
    - target: {fileID: 224653966570584042, guid: c6915a811395d6a4c952d570bee2e792,
        type: 2}
      propertyPath: m_LocalRotation.z
      value: 0
      objectReference: {fileID: 0}
    - target: {fileID: 224653966570584042, guid: c6915a811395d6a4c952d570bee2e792,
        type: 2}
      propertyPath: m_LocalRotation.w
      value: 1
      objectReference: {fileID: 0}
    - target: {fileID: 224653966570584042, guid: c6915a811395d6a4c952d570bee2e792,
        type: 2}
      propertyPath: m_RootOrder
      value: 1
      objectReference: {fileID: 0}
    - target: {fileID: 224653966570584042, guid: c6915a811395d6a4c952d570bee2e792,
        type: 2}
      propertyPath: m_AnchoredPosition.x
      value: 0
      objectReference: {fileID: 0}
    - target: {fileID: 224653966570584042, guid: c6915a811395d6a4c952d570bee2e792,
        type: 2}
      propertyPath: m_AnchoredPosition.y
      value: 0
      objectReference: {fileID: 0}
    - target: {fileID: 224653966570584042, guid: c6915a811395d6a4c952d570bee2e792,
        type: 2}
      propertyPath: m_SizeDelta.x
      value: 0
      objectReference: {fileID: 0}
    - target: {fileID: 224653966570584042, guid: c6915a811395d6a4c952d570bee2e792,
        type: 2}
      propertyPath: m_SizeDelta.y
      value: 0
      objectReference: {fileID: 0}
    - target: {fileID: 224653966570584042, guid: c6915a811395d6a4c952d570bee2e792,
        type: 2}
      propertyPath: m_AnchorMin.x
      value: 0
      objectReference: {fileID: 0}
    - target: {fileID: 224653966570584042, guid: c6915a811395d6a4c952d570bee2e792,
        type: 2}
      propertyPath: m_AnchorMin.y
      value: 0
      objectReference: {fileID: 0}
    - target: {fileID: 224653966570584042, guid: c6915a811395d6a4c952d570bee2e792,
        type: 2}
      propertyPath: m_AnchorMax.x
      value: 0
      objectReference: {fileID: 0}
    - target: {fileID: 224653966570584042, guid: c6915a811395d6a4c952d570bee2e792,
        type: 2}
      propertyPath: m_AnchorMax.y
      value: 0
      objectReference: {fileID: 0}
    - target: {fileID: 224653966570584042, guid: c6915a811395d6a4c952d570bee2e792,
        type: 2}
      propertyPath: m_Pivot.x
      value: 0
      objectReference: {fileID: 0}
    - target: {fileID: 224653966570584042, guid: c6915a811395d6a4c952d570bee2e792,
        type: 2}
      propertyPath: m_Pivot.y
      value: 0
      objectReference: {fileID: 0}
    - target: {fileID: 114191444640138022, guid: c6915a811395d6a4c952d570bee2e792,
        type: 2}
      propertyPath: m_Text
      value: 'The Bunny


        Controls:

        Movement: W/A/D

        Jump: Space

        Attack: F


        Special Ability:

        High speed (passive)

        Double Jump'
      objectReference: {fileID: 0}
    - target: {fileID: 114371504397151134, guid: c6915a811395d6a4c952d570bee2e792,
        type: 2}
      propertyPath: m_Delegates.Array.data[2].eventID
      value: 4
      objectReference: {fileID: 0}
    - target: {fileID: 114371504397151134, guid: c6915a811395d6a4c952d570bee2e792,
        type: 2}
      propertyPath: m_Delegates.Array.data[2].callback.m_PersistentCalls.m_Calls.Array.data[0].m_Target
      value: 
      objectReference: {fileID: 263204613}
    - target: {fileID: 114371504397151134, guid: c6915a811395d6a4c952d570bee2e792,
        type: 2}
      propertyPath: m_Delegates.Array.data[2].callback.m_PersistentCalls.m_Calls.Array.data[0].m_MethodName
      value: P1ChooseCharacter
      objectReference: {fileID: 0}
    - target: {fileID: 114371504397151134, guid: c6915a811395d6a4c952d570bee2e792,
        type: 2}
      propertyPath: m_Delegates.Array.data[2].callback.m_PersistentCalls.m_Calls.Array.data[0].m_Mode
      value: 3
      objectReference: {fileID: 0}
    - target: {fileID: 114371504397151134, guid: c6915a811395d6a4c952d570bee2e792,
        type: 2}
      propertyPath: m_Delegates.Array.data[2].callback.m_PersistentCalls.m_Calls.Array.data[0].m_Arguments.m_ObjectArgumentAssemblyTypeName
      value: UnityEngine.Object, UnityEngine
      objectReference: {fileID: 0}
    - target: {fileID: 114371504397151134, guid: c6915a811395d6a4c952d570bee2e792,
        type: 2}
      propertyPath: m_Delegates.Array.data[2].callback.m_PersistentCalls.m_Calls.Array.data[0].m_CallState
      value: 2
      objectReference: {fileID: 0}
    - target: {fileID: 114371504397151134, guid: c6915a811395d6a4c952d570bee2e792,
        type: 2}
      propertyPath: m_Delegates.Array.data[2].callback.m_TypeName
      value: UnityEngine.EventSystems.EventTrigger+TriggerEvent, UnityEngine.UI, Version=1.0.0.0,
        Culture=neutral, PublicKeyToken=null
      objectReference: {fileID: 0}
    - target: {fileID: 114390065214646542, guid: c6915a811395d6a4c952d570bee2e792,
        type: 2}
      propertyPath: m_Text
      value: 'The T.H.I.C.C.


        Controls:

        Movement: W/A/D

        Jump: Space

        Attack: F


        Special Ability: Double-tap A/D

        Quick Dash

        (4s Cooldown)'
      objectReference: {fileID: 0}
    - target: {fileID: 114384565808953102, guid: c6915a811395d6a4c952d570bee2e792,
        type: 2}
      propertyPath: m_Color.g
      value: 0.68235296
      objectReference: {fileID: 0}
    - target: {fileID: 114384565808953102, guid: c6915a811395d6a4c952d570bee2e792,
        type: 2}
      propertyPath: m_Color.b
      value: 0.68235296
      objectReference: {fileID: 0}
    - target: {fileID: 224886690168605416, guid: c6915a811395d6a4c952d570bee2e792,
        type: 2}
      propertyPath: m_AnchoredPosition.y
      value: -27
      objectReference: {fileID: 0}
    - target: {fileID: 224408685204437200, guid: c6915a811395d6a4c952d570bee2e792,
        type: 2}
      propertyPath: m_AnchoredPosition.y
      value: -16.6
      objectReference: {fileID: 0}
    - target: {fileID: 224700592289725270, guid: c6915a811395d6a4c952d570bee2e792,
        type: 2}
      propertyPath: m_AnchoredPosition.y
      value: -21.4
      objectReference: {fileID: 0}
    - target: {fileID: 224767794692050244, guid: c6915a811395d6a4c952d570bee2e792,
        type: 2}
      propertyPath: m_AnchoredPosition.y
      value: -34.024
      objectReference: {fileID: 0}
    - target: {fileID: 114322543084849388, guid: c6915a811395d6a4c952d570bee2e792,
        type: 2}
      propertyPath: m_Text
      value: 'The Mermaid


        Controls:

        Movement: W/A/D

        Jump: Space

        Attack: F


        Special Ability: R

        Phase Shift

        (12s Cooldown)'
      objectReference: {fileID: 0}
    - target: {fileID: 114818698101778566, guid: c6915a811395d6a4c952d570bee2e792,
        type: 2}
      propertyPath: m_Text
      value: 'The Cactus


        Controls:

        Movement: W/A/D

        Jump: Space

        Attack: F


        Special Ability: R

        Needle Burst

        (8s Cooldown)'
      objectReference: {fileID: 0}
    - target: {fileID: 114140376942728328, guid: c6915a811395d6a4c952d570bee2e792,
        type: 2}
      propertyPath: m_Sprite
      value: 
      objectReference: {fileID: 21300000, guid: 783222d588811af42b1a552e4ba533a2,
        type: 3}
    - target: {fileID: 224700592289725270, guid: c6915a811395d6a4c952d570bee2e792,
        type: 2}
      propertyPath: m_AnchoredPosition.x
      value: -583
      objectReference: {fileID: 0}
    - target: {fileID: 224700592289725270, guid: c6915a811395d6a4c952d570bee2e792,
        type: 2}
      propertyPath: m_SizeDelta.x
      value: 350
      objectReference: {fileID: 0}
    - target: {fileID: 224700592289725270, guid: c6915a811395d6a4c952d570bee2e792,
        type: 2}
      propertyPath: m_SizeDelta.y
      value: 420
      objectReference: {fileID: 0}
    - target: {fileID: 224193761864338816, guid: c6915a811395d6a4c952d570bee2e792,
        type: 2}
      propertyPath: m_AnchoredPosition.y
      value: -0.60996
      objectReference: {fileID: 0}
    - target: {fileID: 114398087204332006, guid: c6915a811395d6a4c952d570bee2e792,
        type: 2}
      propertyPath: m_Sprite
      value: 
      objectReference: {fileID: 21300000, guid: 5912100dbedb4404781b1fe3ab898574,
        type: 3}
    - target: {fileID: 224767794692050244, guid: c6915a811395d6a4c952d570bee2e792,
        type: 2}
      propertyPath: m_AnchoredPosition.x
      value: -181
      objectReference: {fileID: 0}
    - target: {fileID: 224767794692050244, guid: c6915a811395d6a4c952d570bee2e792,
        type: 2}
      propertyPath: m_SizeDelta.x
      value: 350
      objectReference: {fileID: 0}
    - target: {fileID: 224767794692050244, guid: c6915a811395d6a4c952d570bee2e792,
        type: 2}
      propertyPath: m_SizeDelta.y
      value: 420
      objectReference: {fileID: 0}
    - target: {fileID: 114429613672559008, guid: c6915a811395d6a4c952d570bee2e792,
        type: 2}
      propertyPath: m_Sprite
      value: 
      objectReference: {fileID: 21300000, guid: 8ca1b55668ca45b498f3d833457e49a3,
        type: 3}
    - target: {fileID: 114030193068393126, guid: c6915a811395d6a4c952d570bee2e792,
        type: 2}
      propertyPath: m_Sprite
      value: 
      objectReference: {fileID: 21300000, guid: daaa8d81e43bfef4bb90b5623f8a5920,
        type: 3}
    - target: {fileID: 224886690168605416, guid: c6915a811395d6a4c952d570bee2e792,
        type: 2}
      propertyPath: m_SizeDelta.x
      value: 390
      objectReference: {fileID: 0}
    - target: {fileID: 224886690168605416, guid: c6915a811395d6a4c952d570bee2e792,
        type: 2}
      propertyPath: m_SizeDelta.y
      value: 466
      objectReference: {fileID: 0}
    - target: {fileID: 224408685204437200, guid: c6915a811395d6a4c952d570bee2e792,
        type: 2}
      propertyPath: m_SizeDelta.x
      value: 390
      objectReference: {fileID: 0}
    - target: {fileID: 224408685204437200, guid: c6915a811395d6a4c952d570bee2e792,
        type: 2}
      propertyPath: m_SizeDelta.y
      value: 466
      objectReference: {fileID: 0}
    - target: {fileID: 224408685204437200, guid: c6915a811395d6a4c952d570bee2e792,
        type: 2}
      propertyPath: m_AnchoredPosition.x
      value: 549
      objectReference: {fileID: 0}
    - target: {fileID: 224605820890005518, guid: c6915a811395d6a4c952d570bee2e792,
        type: 2}
      propertyPath: m_AnchoredPosition.x
      value: -489
      objectReference: {fileID: 0}
    - target: {fileID: 224605820890005518, guid: c6915a811395d6a4c952d570bee2e792,
        type: 2}
      propertyPath: m_AnchoredPosition.y
      value: 0
      objectReference: {fileID: 0}
    - target: {fileID: 224886690168605416, guid: c6915a811395d6a4c952d570bee2e792,
        type: 2}
      propertyPath: m_AnchoredPosition.x
      value: 210.3
      objectReference: {fileID: 0}
    m_RemovedComponents:
    - {fileID: 114653517317158224, guid: c6915a811395d6a4c952d570bee2e792, type: 2}
  m_SourcePrefab: {fileID: 100100000, guid: c6915a811395d6a4c952d570bee2e792, type: 2}
  m_IsPrefabAsset: 0
